NAME : ei15
COMMENT : 15 locations in Ireland
COMMENT : Derived from National Imagery and Mapping Agency data
TYPE : TSP
DIMENSION : 15
EDGE_WEIGHT_TYPE : EUC_2D
NODE_COORD_SECTION
1 51445.0000 9479.4444
2 51455.2778 9815.8333
3 51462.2222 9433.6111
4 51466.6667 9716.6667
5 51468.6111 9810.0000
6 51470.0000 9416.3889
7 51472.7778 9768.8889
8 51481.9444 9762.2222
9 51483.3333 9350.0000
10 51483.3333 9366.6667
11 51483.6111 9783.0556
12 51486.3889 9724.7222
13 51487.7778 9348.0556
14 51493.8889 9709.1667
15 51495.5556 9315.0000
EOF
